[ 
  {
    "param": "angle",
    "rms": 0.0,
    "coeffs": {
      "GM01X1__": 1.0,
      "GM01Y1__": -1.0
    }
  },
   {
    "param": "angle",
    "rms": 0.0,
    "coeffs": {
      "GM01U1__": 1.0,
      "GM01V1__": -1.0
    }
  },

  {
    "param": "angle",
    "rms": 0.0,
    "coeffs": {
      "GM02X1__": 1.0,
      "GM02Y1__": -1.0
    }
  },
   {
    "param": "angle",
    "rms": 0.0,
    "coeffs": {
      "GM02U1__": 1.0,
      "GM02V1__": -1.0
    }
  },

  {
    "param": "angle",
    "rms": 0.0,
    "coeffs": {
      "GM03X1__": 1.0,
      "GM03Y1__": -1.0
    }
  },
   {
    "param": "angle",
    "rms": 0.0,
    "coeffs": {
      "GM03U1__": 1.0,
      "GM03V1__": -1.0
    }
  },

  {
    "param": "angle",
    "rms": 0.0,
    "coeffs": {
      "GM04X1__": 1.0,
      "GM04Y1__": -1.0
    }
  },
   {
    "param": "angle",
    "rms": 0.0,
    "coeffs": {
      "GM04U1__": 1.0,
      "GM04V1__": -1.0
    }
  },

  {
    "param": "angle",
    "rms": 0.0,
    "coeffs": {
      "GM05X1__": 1.0,
      "GM05Y1__": -1.0
    }
  },
  {
    "param": "angle",
    "rms": 0.0,
    "coeffs": {
      "GM05U1__": 1.0,
      "GM05V1__": -1.0
    }
  },
  
  {
    "param": "angle",
    "rms": 0.0,
    "coeffs": {
      "GM06X1__": 1.0,
      "GM06Y1__": -1.0
    }
  },
   {
    "param": "angle",
    "rms": 0.0,
    "coeffs": {
      "GM06U1__": 1.0,
      "GM06V1__": -1.0
    }
  },
  
  {
    "param": "angle",
    "rms": 0.0,
    "coeffs": {
      "GM07X1__": 1.0,
      "GM07Y1__": -1.0
    }
  },
   {
    "param": "angle",
    "rms": 0.0,
    "coeffs": {
      "GM07U1__": 1.0,
      "GM07V1__": -1.0
    }
  },
  
  {
    "param": "angle",
    "rms": 0.0,
    "coeffs": {
      "GM08X1__": 1.0,
      "GM08Y1__": -1.0
    }
  },
   {
    "param": "angle",
    "rms": 0.0,
    "coeffs": {
      "GM08U1__": 1.0,
      "GM08V1__": -1.0
    }
  },
  
  
  {
    "param": "angle",
    "rms": 0.0,
    "coeffs": {
      "GM09X1__": 1.0,
      "GM01Y1__": -1.0
    }
  },
   {
    "param": "angle",
    "rms": 0.0,
    "coeffs": {
      "GM09U1__": 1.0,
      "GM09V1__": -1.0
    }
  },
  
  {
    "param": "angle",
    "rms": 0.0,
    "coeffs": {
      "GM10X1__": 1.0,
      "GM10Y1__": -1.0
    }
  },
   {
    "param": "angle",
    "rms": 0.0,
    "coeffs": {
      "GM10U1__": 1.0,
      "GM10V1__": -1.0
    }
  },
  
  {
    "param": "angle",
    "rms": 0.0,
    "coeffs": {
      "GM11X1__": 1.0,
      "GM11Y1__": -1.0
    }
  },
   {
    "param": "angle",
    "rms": 0.0,
    "coeffs": {
      "GM11U1__": 1.0,
      "GM11V1__": -1.0
    }
  }
]

